Анализ цен сигарет в США
…
Мы заинтеросованы в том, чтобы проверить есть ли статистически значимые различия в цене сигарет в наблюдаемый период с помощью однопробного теста Стьюдента: \[t = \frac{\overline{x} - mu_0}{s/\sqrt{n}}.\] А также проверить есть ли какая-небудь зависимость между ценой пачки сигарет и средним доходом на душу населения с помощью корреляционного теста Пирсона.

Анализ

# descriptive analysis
cigar %>% select(-c(X, pimin)) %>% 
  group_by(state) %>% 
  summarise(ObservedYears = n(),
            MeanSales = mean(sales),
            SalesMin = min(sales),
            SalesMax = max(sales),
            Year_of_min = year[which.min(sales)],
            Year_of_max = year[which.max(sales)])

## # A tibble: 46 x 7
##    state ObservedYears MeanSales SalesMin SalesMax Year_of_min Year_of_max
##    <int>         <int>     <dbl>    <dbl>    <dbl>       <int>       <int>
##  1     1            30      107.     88.4     123.          68          80
##  2     3            30      113.     79       133.          92          74
##  3     4            30      115.     98.9     132.          66          80
##  4     5            30      115.     67.5     142           92          63
##  5     7            30      118.     83.6     156.          92          63
##  6     8            30      151.    119.      176.          91          69
##  7     9            30      164.     82.2     296.          91          66
##  8    10            30      126.     95.9     139           92          80
##  9    11            30      119.    104.      134           65          80
## 10    13            30      105.     78.4     126.          89          72
## # ... with 36 more rows
…
